<?xml version="1.0" encoding="utf-8"?>
<svg width="772px" height="757px" viewBox="0 0 772 757" version="1.1" xmlns:xlink="http://www.w3.org/1999/xlink" xmlns="http://www.w3.org/2000/svg">
  <desc>Created with Lunacy</desc>
  <defs>
    <linearGradient x1="58.337173" y1="9.213379" x2="58.337173" y2="8.213379" id="gradient_1">
      <stop offset="0" stop-color="#808080" stop-opacity="0.2509804" />
      <stop offset="0.53514" stop-color="#808080" stop-opacity="0.12156863" />
      <stop offset="1" stop-color="#808080" stop-opacity="0.101960786" />
    </linearGradient>
    <path d="M0 0L772 0L772 756.266L0 756.266L0 0Z" id="path_1" />
    <clipPath id="mask_1">
      <use xlink:href="#path_1" />
    </clipPath>
  </defs>
  <g id="undraw_click_here_2li1">
    <path d="M0 0L772 0L772 756.266L0 756.266L0 0Z" id="Background" fill="none" fill-rule="evenodd" stroke="none" />
    <g clip-path="url(#mask_1)">
      <path d="M500.4 165.07L500.4 219.67L449.89 197.5L429.39 188.5L413.44 181.5L331.44 145.5L315.49 138.5L294.99 129.5L0 0L124.38 0L500.4 165.07L500.4 165.07Z" transform="translate(271.6 5)" id="Polygon" fill="#F2F2F2" fill-rule="evenodd" stroke="none" />
      <path d="M0 66C0 29.5492 29.5492 0 66 0C102.451 0 132 29.5492 132 66C132 102.451 102.451 132 66 132C29.5492 132 0 102.451 0 66Z" transform="translate(597 0)" id="Circle" fill="#333983" fill-rule="evenodd" stroke="none" />
      <path d="M12 24C5.37256 24 0 18.6274 0 12C0 5.37259 5.37256 0 12 0C18.6274 0 24 5.37259 24 12C23.9924 18.6247 18.624 23.9928 11.9996 24L12 24ZM12 2C6.47717 2 2 6.47714 2 12C2 17.5229 6.47717 22 12 22C17.5228 22 22 17.5229 22 12C21.9937 6.47974 17.5202 2.00629 11.9999 2L12 2Z" transform="translate(686 350.00015)" id="Shape" fill="#3F3D56" fill-rule="evenodd" stroke="none" />
      <path d="M26 26L0 26L0 0L26 0L26 26ZM2 24L24 24L24 2L2 2L2 24Z" transform="translate(0 183.00015)" id="Shape" fill="#3F3D56" fill-rule="evenodd" stroke="none" />
      <path d="M26 26L0 26L0 0L26 0L26 26ZM2 24L24 24L24 2L2 2L2 24Z" transform="translate(387 4.0001526)" id="Shape" fill="#3F3D56" fill-rule="evenodd" stroke="none" />
      <path d="M0 0L186 0L186 151L0 151L0 0Z" transform="translate(118.5 162.62024)" id="Rectangle" fill="#333983" fill-rule="evenodd" stroke="none" />
      <path d="M0 0L515 0L515 16L0 16L0 0Z" transform="translate(118.5 359.62024)" id="Rectangle" fill="#F2F2F2" fill-rule="evenodd" stroke="none" />
      <path d="M188 153L0 153L0 0L188 0L188 153ZM2 151L186 151L186 2L2 2L2 151Z" transform="translate(104.5 152.62027)" id="Shape" fill="#3F3D56" fill-rule="evenodd" stroke="none" />
      <path d="M0 0L180 0L180 16L0 16L0 0Z" transform="translate(378.5 204.12024)" id="Rectangle" fill="#333983" fill-rule="evenodd" stroke="none" />
      <path d="M0 0L255 0L255 16L0 16L0 0Z" transform="translate(378.5 247.12024)" id="Rectangle" fill="#6C63FF" fill-opacity="0.3" fill-rule="evenodd" stroke="none" />
      <path d="M182 18L0 18L0 0L182 0L182 18ZM2 16L180 16L180 2L2 2L2 16Z" transform="translate(364.5 194.12027)" id="Shape" fill="#3F3D56" fill-rule="evenodd" stroke="none" />
      <path d="M257 18L0 18L0 0L257 0L257 18ZM2 16L255 16L255 2L2 2L2 16Z" transform="translate(364.5 237.12027)" id="Shape" fill="#3F3D56" fill-rule="evenodd" stroke="none" />
      <path d="M517 18L0 18L0 0L517 0L517 18ZM2 16L515 16L515 2L2 2L2 16Z" transform="translate(104.5 349.62027)" id="Shape" fill="#3F3D56" fill-rule="evenodd" stroke="none" />
      <path d="M0 0L515 0L515 16L0 16L0 0Z" transform="translate(118.5 409.62024)" id="Rectangle" fill="#F2F2F2" fill-rule="evenodd" stroke="none" />
      <path d="M517 18L0 18L0 0L517 0L517 18ZM2 16L515 16L515 2L2 2L2 16Z" transform="translate(104.5 399.62027)" id="Shape" fill="#3F3D56" fill-rule="evenodd" stroke="none" />
      <path d="M0 0L515 0L515 16L0 16L0 0Z" transform="translate(118.5 459.62024)" id="Rectangle" fill="#F2F2F2" fill-rule="evenodd" stroke="none" />
      <path d="M517 18L0 18L0 0L517 0L517 18ZM2 16L515 16L515 2L2 2L2 16Z" transform="translate(104.5 449.62027)" id="Shape" fill="#3F3D56" fill-rule="evenodd" stroke="none" />
      <path d="M0 0L515 0L515 16L0 16L0 0Z" transform="translate(118.5 509.62024)" id="Rectangle" fill="#F2F2F2" fill-rule="evenodd" stroke="none" />
      <path d="M517 18L0 18L0 0L517 0L517 18ZM2 16L515 16L515 2L2 2L2 16Z" transform="translate(104.5 499.62027)" id="Shape" fill="#3F3D56" fill-rule="evenodd" stroke="none" />
      <path d="M0 0L515 0L515 16L0 16L0 0Z" transform="translate(118.5 559.62024)" id="Rectangle" fill="#F2F2F2" fill-rule="evenodd" stroke="none" />
      <path d="M517 18L0 18L0 0L517 0L517 18ZM2 16L515 16L515 2L2 2L2 16Z" transform="translate(104.5 549.62024)" id="Shape" fill="#3F3D56" fill-rule="evenodd" stroke="none" />
      <path d="M0 0L515 0L515 16L0 16L0 0Z" transform="translate(118.5 609.62024)" id="Rectangle" fill="#F2F2F2" fill-rule="evenodd" stroke="none" />
      <path d="M517 18L0 18L0 0L517 0L517 18ZM2 16L515 16L515 2L2 2L2 16Z" transform="translate(104.5 599.62024)" id="Shape" fill="#3F3D56" fill-rule="evenodd" stroke="none" />
      <path d="M589.5 649.513L0 649.513L0 0L589.5 0L589.5 649.513ZM2 647.513L587.5 647.513L587.5 2L2 2L2 647.513Z" transform="translate(75 64.61978)" id="Shape" fill="#3F3D56" fill-rule="evenodd" stroke="none" />
      <path d="M0.100006 8.70001C0.0647888 8.71259 0.0312195 8.72937 0 8.75C1.19 6.17999 2.29999 3.58002 3.31 0.940002C3.42999 0.630005 3.54001 0.309998 3.66 0C3.64999 0.0800171 3.64999 0.159973 3.64001 0.25C3.61002 0.75 3.57001 1.25 3.53003 1.76001C3.47003 2.54999 3.41998 3.35004 3.41003 4.15002C3.40002 4.40002 3.40002 4.64001 3.40002 4.89001C3.4032 5.86438 3.50372 6.83588 3.70004 7.79016L3.66 7.79004C3.41 7.81006 3.17999 7.82007 2.94 7.86005C1.99692 7.9859 1.07724 8.24872 0.210022 8.64008C0.171326 8.65613 0.13446 8.67621 0.100006 8.70001L0.100006 8.70001Z" transform="translate(62.299988 717.4199)" id="Shape" fill="url(#gradient_1)" fill-rule="evenodd" stroke="none" />
      <path d="M34.8593 25.7982C34.9662 29.9739 36.3812 34.0197 36.603 38.1878C24.3051 38.7996 12.1755 32.8342 0 34.6621C3.40329 32.4595 5.22357 28.4902 6.29422 24.5821C7.65854 19.5402 8.06583 14.2871 7.49496 9.09512C7.46228 8.80664 7.41122 8.52054 7.34207 8.23856C6.89078 6.19656 5.72061 3.30569 6.03421 1.69955C6.44721 -0.426544 8.45099 -0.00592041 10.2559 0.116425C15.7599 0.535675 21.2381 1.2428 26.6681 2.23486C28.0831 2.47964 41.8647 5.9212 42.0712 5.56174C39.6556 9.43704 37.656 13.5566 36.1058 17.852C35.2455 20.4116 34.824 23.0981 34.8593 25.7982L34.8593 25.7982Z" transform="translate(46.475647 307.54263)" id="Shape" fill="#A0616A" fill-rule="evenodd" stroke="none" />
      <path d="M24.8219 25.8881C23.7653 27.3297 22.4997 28.6056 21.0668 29.6739C20.1337 30.4387 19.1777 31.2187 18.1758 31.9224C16.3916 33.2994 14.2658 34.164 12.027 34.4232C9.09776 34.622 2.87996 32.9012 1.0598 30.3928C0.292496 29.132 -0.0729523 27.6675 0.0120697 26.1941C0.0426483 24.1957 0.383194 22.2142 1.02153 20.3204C2.16243 17.2383 3.76091 14.3456 5.76326 11.7395C7.8817 8.79507 10.2373 5.89651 13.3883 4.1145C14.4382 3.55261 15.521 3.0546 16.631 2.62323C18.543 1.84311 20.4474 1.05533 22.3594 0.275299C22.6846 0.116302 23.038 0.0227661 23.3994 0C24.9366 0.0152588 25.2197 2.36316 24.3477 3.63275C22.604 6.18713 18.6807 6.89838 17.5794 9.79697C19.483 9.8558 21.132 11.1342 21.6633 12.9632C21.7065 13.4366 21.8994 13.8839 22.214 14.2404C22.7188 14.6457 23.5065 14.4163 24.0801 14.7222C25.0971 15.2652 24.6537 16.7795 24.7607 17.9267C25.0105 18.9211 25.3615 19.8872 25.8085 20.8099C26.2455 22.5653 25.8844 24.4241 24.8219 25.8881L24.8219 25.8881Z" transform="translate(178.13008 294.55066)" id="Shape" fill="#A0616A" fill-rule="evenodd" stroke="none" />
      <path d="M0 19.434C0.946747 18.4881 2.49321 18.6489 3.81512 18.8579C10.9109 19.9799 18.0818 20.5599 25.2657 20.5931C26.1653 16.2012 23.5544 11.9324 22.7133 7.52899C22.5918 6.39258 22.3055 5.27985 21.8637 4.22577C20.8521 2.28479 18.57 1.39697 16.4283 0.94519C12.5626 0.129822 6.51988 -1.3089 4.36089 2.59943C1.77039 7.28888 0.941574 14.2151 0 19.434L0 19.434Z" transform="translate(33.432434 719.6755)" id="Shape" fill="#65617D" fill-rule="evenodd" stroke="none" />
      <path d="M46.3296 20.9621C43.4158 22.9506 39.7984 23.5701 36.2956 24.0212C32.7852 24.4648 29.183 24.809 26.0091 26.3691C23.2712 27.7228 20.9615 29.9407 18.0629 30.912C15.3673 31.6512 12.5283 31.696 9.81078 31.042C6.55282 30.4302 3.08071 29.2448 1.32174 26.4304C-0.246132 23.9295 -0.0778885 20.7556 0.136284 17.8112C0.388634 14.4843 0.635887 11.1524 0.878105 7.81531C0.866081 6.96893 1.07992 6.1347 1.49764 5.39856C3.85317 1.96466 9.58144 6.83637 12.6483 6.82874C17.5047 6.82111 22.7206 4.19019 26.2233 0.970398C26.53 0.650269 26.8864 0.381714 27.2787 0.17511C28.663 -0.444458 30.0473 0.702759 31.2786 1.70465C31.4162 1.8194 31.5539 1.93408 31.6916 2.04114C34.5289 4.28961 38.3376 4.74847 41.8404 5.65857C45.3508 6.56866 49.1059 8.40417 50.1919 11.8611C50.2623 12.079 50.3185 12.3012 50.3601 12.5264C50.9949 15.708 49.06 19.096 46.3296 20.9621L46.3296 20.9621Z" transform="translate(65.69626 701.55786)" id="Shape" fill="#3F3D56" fill-rule="evenodd" stroke="none" />
      <path d="M46.3296 20.9621C43.4158 22.9506 39.7984 23.5701 36.2956 24.0212C32.7852 24.4648 29.183 24.809 26.0091 26.3691C23.2712 27.7228 20.9615 29.9407 18.0629 30.912C15.3673 31.6512 12.5283 31.696 9.81078 31.042C6.55282 30.4302 3.08071 29.2448 1.32174 26.4304C-0.246132 23.9295 -0.0778885 20.7556 0.136284 17.8112C0.388634 14.4843 0.635887 11.1524 0.878105 7.81531C0.866081 6.96893 1.07992 6.1347 1.49764 5.39856C3.85317 1.96466 9.58144 6.83637 12.6483 6.82874C17.5047 6.82111 22.7206 4.19019 26.2233 0.970398C26.53 0.650269 26.8864 0.381714 27.2787 0.17511C28.663 -0.444458 30.0473 0.702759 31.2786 1.70465C31.4162 1.8194 31.5539 1.93408 31.6916 2.04114C34.5289 4.28961 38.3376 4.74847 41.8404 5.65857C45.3508 6.56866 49.1059 8.40417 50.1919 11.8611C50.2623 12.079 50.3185 12.3012 50.3601 12.5264C50.9949 15.708 49.06 19.096 46.3296 20.9621L46.3296 20.9621Z" transform="translate(65.69626 701.55786)" id="Shape" fill="#2F2E41" fill-rule="evenodd" stroke="none" />
      <path d="M46.3296 22.0814C43.4158 24.0699 39.7984 24.6894 36.2956 25.1406C32.7851 25.5842 29.183 25.9283 26.0091 27.4885C23.2712 28.8422 20.9615 31.06 18.0629 32.0313C15.3673 32.7706 12.5284 32.8153 9.81078 32.1613C6.34341 31.4277 3.2983 29.372 1.32171 26.4303C-0.246132 23.9294 -0.0778885 20.7555 0.136284 17.8111C0.388634 14.4843 0.635887 11.1523 0.878105 7.81525C0.866081 6.96887 1.07992 6.13464 1.49764 5.3985C3.85317 1.9646 9.58144 6.8363 12.6483 6.82867C17.5047 6.82104 22.7206 4.19012 26.2233 0.970337C26.53 0.650146 26.8864 0.381592 27.2787 0.175049C28.663 -0.444458 30.0473 0.702759 31.2786 1.70465C30.4688 4.19983 29.3212 6.57233 27.8676 8.75598C25.4914 12.4846 21.5607 14.943 17.1682 15.4479C14.9961 15.6085 12.7707 15.1802 10.6675 15.7385C8.57195 16.2969 6.61407 18.4459 7.35586 20.4879C8.08236 22.4764 10.6522 22.9123 12.7707 23.027C15.7379 23.1877 18.7819 23.3329 21.5964 22.4075C23.3172 21.8339 24.8926 20.8856 26.5675 20.1896C33.6876 17.2375 42.6816 18.8895 48.5629 13.9031C49.1208 13.3928 49.7221 12.9322 50.36 12.5264C51.8999 15.7499 49.06 20.2153 46.3296 22.0814L46.3296 22.0814Z" transform="translate(65.69626 701.55786)" id="Shape" fill="#E8EAF2" fill-rule="evenodd" stroke="none" />
      <path d="M46.3296 22.0814C43.4158 24.0699 39.7984 24.6894 36.2956 25.1406C32.7851 25.5842 29.183 25.9283 26.0091 27.4885C23.2712 28.8422 20.9615 31.06 18.0629 32.0313C15.3673 32.7706 12.5284 32.8153 9.81078 32.1613C6.34341 31.4277 3.2983 29.372 1.32171 26.4303C-0.246132 23.9294 -0.0778885 20.7555 0.136284 17.8111C0.388634 14.4843 0.635887 11.1523 0.878105 7.81525C0.866081 6.96887 1.07992 6.13464 1.49764 5.3985C3.85317 1.9646 9.58144 6.8363 12.6483 6.82867C17.5047 6.82104 22.7206 4.19012 26.2233 0.970337C26.53 0.650146 26.8864 0.381592 27.2787 0.175049C28.663 -0.444458 30.0473 0.702759 31.2786 1.70465C30.4688 4.19983 29.3212 6.57233 27.8676 8.75598C25.4914 12.4846 21.5607 14.943 17.1682 15.4479C14.9961 15.6085 12.7707 15.1802 10.6675 15.7385C8.57195 16.2969 6.61407 18.4459 7.35586 20.4879C8.08236 22.4764 10.6522 22.9123 12.7707 23.027C15.7379 23.1877 18.7819 23.3329 21.5964 22.4075C23.3172 21.8339 24.8926 20.8856 26.5675 20.1896C33.6876 17.2375 42.6816 18.8895 48.5629 13.9031C49.1208 13.3928 49.7221 12.9322 50.36 12.5264C51.8999 15.7499 49.06 20.2153 46.3296 22.0814L46.3296 22.0814Z" transform="translate(65.69626 701.55786)" id="Shape" fill="#000000" fill-opacity="0.05" fill-rule="evenodd" stroke="none" />
      <path d="M0.881569 12.8606C-1.38799 23.9998 0.763985 35.585 6.88242 45.1661C8.5507 47.751 10.5057 50.1777 11.7599 52.9869C12.5818 54.9906 13.219 57.0651 13.6633 59.1846L19.0686 81.558C20.5278 87.598 21.9976 93.7548 21.5594 99.9531C21.254 104.272 20.1654 109.128 22.8271 112.543C23.469 113.195 24.0109 113.939 24.4352 114.749C24.7005 115.699 24.7097 116.702 24.4617 117.657C21.727 133.9 19.699 150.882 24.6386 166.597C29.1157 180.839 29.3713 196.621 33.1781 211.057C33.6495 212.845 34.1886 214.729 35.5428 215.988C36.5604 216.845 37.7813 217.425 39.0881 217.673C44.698 219.008 50.6221 217.444 55.8541 215.019C59.5313 213.316 63.4891 210.328 63.175 206.287C63.0255 204.365 61.9028 202.68 61.1408 200.91C59.6462 197.436 59.5262 193.557 59.1229 189.797C58.1103 180.357 55.2 171.241 53.0003 162.005C50.8007 152.769 49.3064 143.118 51.1668 133.808C54.9714 114.549 61.0615 95.8145 69.3076 78C69.6663 77.0524 70.2343 76.1981 70.9692 75.5008C71.7963 75.0317 72.5829 74.4947 73.3211 73.8954C73.8922 73.012 74.2597 72.0126 74.397 70.9697C75.2152 68.0229 77.6455 65.8488 79.2748 63.2606C83.3885 56.7255 82.0849 48.3486 81.9325 40.628C81.7843 33.12 82.8654 25.5433 81.6346 18.1355C80.4038 10.7276 76.16 3.15536 69.0183 0.834198C65.4806 -0.315582 61.656 -0.0547791 57.9543 0.311615C38.3428 2.25284 19.2865 5.81528 0.881569 12.8606L0.881569 12.8606Z" transform="translate(33.882446 492.8944)" id="Shape" fill="#2F2E41" fill-rule="evenodd" stroke="none" />
      <path d="M0.881569 12.8606C-1.38799 23.9998 0.763985 35.585 6.88242 45.1661C8.5507 47.751 10.5057 50.1777 11.7599 52.9869C12.5818 54.9906 13.219 57.0651 13.6633 59.1846L19.0686 81.558C20.5278 87.598 21.9976 93.7548 21.5594 99.9531C21.254 104.272 20.1654 109.128 22.8271 112.543C23.469 113.195 24.0109 113.939 24.4352 114.749C24.7005 115.699 24.7097 116.702 24.4617 117.657C21.727 133.9 19.699 150.882 24.6386 166.597C29.1157 180.839 29.3713 196.621 33.1781 211.057C33.6495 212.845 34.1886 214.729 35.5428 215.988C36.5604 216.845 37.7813 217.425 39.0881 217.673C44.698 219.008 50.6221 217.444 55.8541 215.019C59.5313 213.316 63.4891 210.328 63.175 206.287C63.0255 204.365 61.9028 202.68 61.1408 200.91C59.6462 197.436 59.5262 193.557 59.1229 189.797C58.1103 180.357 55.2 171.241 53.0003 162.005C50.8007 152.769 49.3064 143.118 51.1668 133.808C54.9714 114.549 61.0615 95.8145 69.3076 78C69.6663 77.0524 70.2343 76.1981 70.9692 75.5008C71.7963 75.0317 72.5829 74.4947 73.3211 73.8954C73.8922 73.012 74.2597 72.0126 74.397 70.9697C75.2152 68.0229 77.6455 65.8488 79.2748 63.2606C83.3885 56.7255 82.0849 48.3486 81.9325 40.628C81.7843 33.12 82.8654 25.5433 81.6346 18.1355C80.4038 10.7276 76.16 3.15536 69.0183 0.834198C65.4806 -0.315582 61.656 -0.0547791 57.9543 0.311615C38.3428 2.25284 19.2865 5.81528 0.881569 12.8606L0.881569 12.8606Z" transform="translate(33.882446 492.8944)" id="Shape" fill="#000000" fill-opacity="0.1" fill-rule="evenodd" stroke="none" />
      <path d="M83.0906 56.3352C83.0325 59.2531 82.7022 62.1591 82.1039 65.0156C78.6471 84.4031 74.9633 103.75 71.0527 123.056C70.7086 124.73 70.372 126.405 69.9208 128.05C68.4638 133.422 65.915 138.436 62.4336 142.779C46.1358 163.092 44.7286 192.59 35.8876 217.087C35.2911 218.746 34.6946 220.406 34.0597 222.042C32.462 226.193 30.6417 230.255 28.6068 234.21C28.3691 234.787 27.9808 235.288 27.4825 235.663C26.9341 235.939 26.3201 236.058 25.7083 236.007C17.7531 236.053 9.8944 234.266 2.74158 230.784C1.72042 230.408 0.859289 229.692 0.301916 228.757C0.0275936 228.012 -0.0616703 227.212 0.0418301 226.425C0.286612 221.568 0.584829 216.536 2.90214 212.268C4.43983 209.715 6.34698 207.403 8.56161 205.408C9.24993 190.166 10.7566 174.893 14.1064 160.01C15.8272 152.401 17.9532 144.707 22.3737 138.275C25.6317 133.525 30.3047 128.837 29.7311 123.109C29.4786 120.593 28.4232 117.457 30.4729 115.981C31.3677 115.331 32.6907 115.247 33.2949 114.322C33.5384 113.886 33.6747 113.398 33.6926 112.899C34.1138 108.968 33.8682 104.994 32.9661 101.144C32.2208 98.6295 31.6358 96.0699 31.2147 93.481C30.9546 90.8654 31.3982 88.0357 33.142 86.0778C33.249 80.8466 33.1037 75.4166 33.2108 70.1931C33.4168 67.2158 33.1693 64.2244 32.4765 61.3215C32.0789 59.9525 31.4747 58.6448 31.1687 57.2452C30.0751 52.2205 32.8055 46.2016 29.5551 42.217C28.2014 40.5651 26.1136 39.7391 24.3392 38.546C20.7982 36.1828 18.4732 32.313 17.1807 28.2519C16.0338 24.1401 15.354 19.9122 15.1541 15.6481C15.0484 14.7442 15.0381 13.8316 15.1234 12.9255C15.1808 12.4566 15.3044 11.9983 15.4905 11.5642C16.5001 9.29276 19.2151 8.41318 21.6318 7.832C36.9909 4.14829 52.7341 2.30746 68.5287 2.34836C74.3717 -1.62845 77.6604 -0.205963 80.1383 4.00803C81.5068 6.58029 82.6136 9.28336 83.4422 12.0766C84.5741 15.4951 84.6429 34.6302 85.7442 38.0641C87.1744 42.5307 83.037 51.647 83.0906 56.3352L83.0906 56.3352Z" transform="translate(31.551025 496.50824)" id="Shape" fill="#2F2E41" fill-rule="evenodd" stroke="none" />
      <path d="M0.530626 6.22861C0.0964527 9.23941 1.54412 12.1983 1.70418 15.236C1.84403 17.8901 0.999178 20.4825 0.515841 23.0959C-1.37063 33.2957 2.25379 43.6274 5.94234 53.3221C6.64383 54.8965 7.07916 56.5763 7.23058 58.2932C7.32926 61.4575 5.50676 64.3567 5.00765 67.4829C3.95885 74.0521 8.80443 80.2315 8.90486 86.8831C8.9511 89.9456 7.98668 93.0626 8.75287 96.028C9.26419 98.0071 10.4995 99.7079 11.3761 101.554C12.9294 104.826 13.3462 108.538 14.8288 111.843C17.5082 117.815 23.2644 121.714 28.7425 125.297C31.8591 124.258 35.2285 123.024 36.9394 120.22C37.6905 118.838 38.1758 117.328 38.3702 115.767C39.5547 108.964 39.5137 102.015 39.4691 95.1096C39.5693 89.1672 39.2534 83.2254 38.524 77.3274C37.4174 69.825 34.9832 62.591 33.2368 55.2109C31.0343 45.9031 29.9056 36.2862 26.4751 27.3577C23.4606 19.5115 18.765 12.4687 13.8226 5.72278C11.9368 3.14883 10.448 -0.530396 6.78795 0.0639343C3.61609 0.603912 1.11785 3.06516 0.530626 6.22861L0.530626 6.22861Z" transform="translate(8.4670105 372.48584)" id="Shape" fill="#3F3D56" fill-rule="evenodd" stroke="none" />
      <path d="M0.530626 6.22861C0.0964527 9.23941 1.54412 12.1983 1.70418 15.236C1.84403 17.8901 0.999178 20.4825 0.515841 23.0959C-1.37063 33.2957 2.25379 43.6274 5.94234 53.3221C6.64383 54.8965 7.07916 56.5763 7.23058 58.2932C7.32926 61.4575 5.50676 64.3567 5.00765 67.4829C3.95885 74.0521 8.80443 80.2315 8.90486 86.8831C8.9511 89.9456 7.98668 93.0626 8.75287 96.028C9.26419 98.0071 10.4995 99.7079 11.3761 101.554C12.9294 104.826 13.3462 108.538 14.8288 111.843C17.5082 117.815 23.2644 121.714 28.7425 125.297C31.8591 124.258 35.2285 123.024 36.9394 120.22C37.6905 118.838 38.1758 117.328 38.3702 115.767C39.5547 108.964 39.5137 102.015 39.4691 95.1096C39.5693 89.1672 39.2534 83.2254 38.524 77.3274C37.4174 69.825 34.9832 62.591 33.2368 55.2109C31.0343 45.9031 29.9056 36.2862 26.4751 27.3577C23.4606 19.5115 18.765 12.4687 13.8226 5.72278C11.9368 3.14883 10.448 -0.530396 6.78795 0.0639343C3.61609 0.603912 1.11785 3.06516 0.530626 6.22861L0.530626 6.22861Z" transform="translate(8.4670105 372.48584)" id="Shape" fill="#000000" fill-opacity="0.05" fill-rule="evenodd" stroke="none" />
      <path d="M0 28.3996C0 12.715 12.715 0 28.3996 0C44.0843 0 56.7993 12.715 56.7993 28.3996C56.7993 44.0843 44.0843 56.7993 28.3996 56.7993C12.715 56.7993 0 44.0843 0 28.3996Z" transform="translate(47.40857 268.64523)" id="Circle" fill="#A0616A" fill-rule="evenodd" stroke="none" />
      <path d="M79.5132 8.1619C78.2751 9.59454 76.6137 11.1733 74.7774 10.7114C74.1137 10.4847 73.4913 10.1515 72.9345 9.72501C69.6607 7.61499 65.6424 7.11984 61.7909 6.53964C54.0277 5.36987 46.3583 3.64563 38.8414 1.38013C36.6598 0.586029 34.3722 0.12088 32.0537 0C27.2402 0.0248718 22.9744 3.22452 19.9579 6.97565C16.9415 10.7268 14.8044 15.1161 11.8445 18.9119C9.73554 21.6164 7.2241 23.9995 5.25463 26.8072C0.282495 33.8954 -0.786169 43.1431 0.497461 51.7056C1.78109 60.2681 5.20204 68.3418 8.5921 76.3088C10.4038 80.9342 12.6152 85.393 15.2012 89.6344C14.0576 96.1402 14.6612 103.58 17.7548 109.417C18.7623 111.317 19.9969 113.171 20.33 115.296C20.4827 116.735 20.4226 118.188 20.1516 119.608L18.7061 129.89C18.266 133.021 17.8257 136.153 17.2557 139.263C16.2124 144.954 14.7971 151.131 17.433 156.282C20.5896 162.451 17.2742 170.357 18.1036 177.236C26.9888 173.804 36.2982 171.592 45.7776 170.661C51.8804 170.063 58.0971 169.987 63.9851 168.274C67.6623 167.204 71.1495 165.511 74.883 164.658C77.9108 164.063 80.9869 163.749 84.0722 163.719C90.8774 163.445 97.7308 163.173 104.467 164.176C105.013 164.257 105.677 164.301 106.004 163.857C106.149 163.615 106.22 163.336 106.208 163.054C106.312 160.529 105.709 158.025 104.467 155.824C103.608 154.308 102.415 152.825 102.448 151.084C102.51 150.271 102.71 149.476 103.038 148.73L106.023 140.77C108.542 134.05 107.343 126.244 108.652 119.188C109.675 113.672 110.33 108.094 110.614 102.492C110.856 97.7032 110.705 92.5175 107.816 88.6912C106.971 87.7688 106.238 86.7497 105.633 85.6552C105.218 84.492 105.041 83.2573 105.113 82.0245C105.049 72.4421 105.311 62.8649 105.902 53.2931C103.382 48.7677 100.755 44.1396 98.2352 39.6141C95.3028 34.3475 92.3295 28.9724 91.1455 23.0619C90.3619 19.1496 90.3891 15.1207 89.8285 11.1703C89.7696 10.1669 89.4207 9.20227 88.8243 8.39328C87.862 7.30328 86.2349 7.14728 84.7817 7.19266C82.9868 7.24954 81.2108 7.57629 79.5132 8.1619L79.5132 8.1619Z" transform="translate(12.822235 335.37338)" id="Shape" fill="#3F3D56" fill-rule="evenodd" stroke="none" />
      <path d="M7.33757 66.8157C9.06618 68.9708 10.8678 71.187 13.3198 72.4597C16.141 73.9241 19.4642 73.9575 22.6421 73.8899C35.7277 73.6107 48.7633 72.1787 61.5975 69.6106C63.0597 69.3589 64.4959 68.974 65.8881 68.4606C67.4311 67.726 68.8858 66.8187 70.2242 65.7561C74.4494 62.7185 78.7347 59.6242 81.9474 55.5305C85.7699 50.5866 88.1724 44.6943 88.8968 38.4872C91.9528 35.6716 93.5756 31.6695 95.1054 27.8059C95.8609 26.1669 96.3392 24.4139 96.5207 22.6183C96.6028 20.7813 95.3855 18.8555 95.7222 17.0478C96.3117 13.9307 97.8923 11.0874 100.229 8.94131C100.724 8.58813 101.098 8.09073 101.3 7.51694C101.363 7.03885 101.274 6.5531 101.045 6.12863C99.7375 3.21579 96.7472 1.33768 93.6469 0.57428C90.5066 -0.0312195 87.2928 -0.158813 84.1144 0.195831C83.055 0.396301 82.0115 0.673462 80.9922 1.02505L78.7713 6.8732C78.4729 7.85138 77.9793 8.75888 77.3203 9.54086C76.8256 9.98996 76.2986 10.402 75.7435 10.7737C73.4548 12.717 72.2832 15.6718 72.6184 18.6554C68.4517 20.273 66.2592 24.8501 67.6102 29.1107C64.2137 29.839 61.4402 32.2807 60.2874 35.5576C60.1292 36.2918 59.8017 36.9789 59.3309 37.5641C58.5981 38.1197 57.6923 38.398 56.7739 38.3499C54.2644 38.5051 52.07 40.4815 49.7957 39.4094C47.2122 38.1985 44.3237 37.7948 41.5072 38.2509C40.9282 38.3872 40.3326 38.4401 39.7386 38.4078C39.2305 38.3205 38.7404 38.1497 38.2881 37.9023C37.264 37.3055 36.1545 36.8689 34.9982 36.608C33.8112 36.3605 32.5895 36.8324 31.8771 37.8136C31.0807 36.9402 30.6061 35.8218 29.8804 34.8889C29.2246 33.8747 28.0537 33.3159 26.8527 33.444C27.6087 32.7704 26.8348 31.4298 25.8523 31.1848C24.8446 31.1021 23.8306 31.1388 22.8316 31.2943C20.205 31.2805 18.1897 28.8956 15.6383 28.2713C13.2932 27.6975 10.1675 28.3818 8.96538 26.2881C8.53917 25.5458 8.45573 24.5391 7.73039 24.0846C7.23903 23.8432 6.67952 23.7784 6.14598 23.9009C4.48042 24.1226 2.86205 24.6138 1.35426 25.3553C-1.1049 34.9744 0.185287 44.964 2.0591 54.7141C2.74364 59.1362 4.56221 63.3055 7.33754 66.8157L7.33757 66.8157Z" transform="translate(94.483215 321.07672)" id="Shape" fill="#3F3D56" fill-rule="evenodd" stroke="none" />
      <path d="M81.4281 5.70761C78.3813 3.81104 74.7946 3.00674 71.2641 2.362C69.1445 1.87958 66.9638 1.72278 64.797 1.89691C62.7978 2.14639 60.8789 2.91827 58.8673 3.03037C56.0438 3.18771 53.3369 2.04245 50.6094 1.29596C47.8818 0.549469 44.7312 0.264282 42.4349 1.91458C41.9461 2.39572 41.3278 2.72409 40.6556 2.85959C39.9583 2.77499 39.3101 2.45709 38.8164 1.95755C34.8369 -0.890686 29.4159 -0.60495 25.7579 2.64581C20.5509 7.52823 21.1402 17.068 15.0379 20.7711C13.3558 21.7919 11.2055 22.3318 10.2234 24.0368C9.98566 24.5799 9.70817 25.1047 9.39321 25.607C8.98444 26.0562 8.48418 26.4127 7.92612 26.6524C6.15551 27.4427 4.47013 28.4116 2.89617 29.544C1.30964 30.699 0.263846 32.4521 0.00116634 34.3968C-0.0213709 35.8077 0.28292 37.2045 0.890204 38.4781C7.00921 53.4863 21.9138 63.0169 38.1044 62.2746C39.5073 62.3468 40.8899 61.9153 42.0027 61.0579C42.5898 60.396 43.0527 59.6336 43.3691 58.8073C46.2379 52.7922 51.626 48.3518 55.0474 42.6329C57.0864 39.2245 58.3953 35.4124 60.5181 32.0554C63.7359 26.9664 68.6295 23.2069 73.4194 19.5588C76.1205 17.5015 79.1276 15.3426 82.5209 15.4867C85.5452 15.6155 87.7449 15.7778 86.6362 12.0687C85.7123 9.39621 83.8657 7.14078 81.4281 5.70761L81.4281 5.70761Z" transform="translate(6.1127625 330.70035)" id="Shape" fill="#3F3D56" fill-rule="evenodd" stroke="none" />
      <path d="M81.4281 5.70761C78.3813 3.81104 74.7946 3.00674 71.2641 2.362C69.1445 1.87958 66.9638 1.72278 64.797 1.89691C62.7978 2.14639 60.8789 2.91827 58.8673 3.03037C56.0438 3.18771 53.3369 2.04245 50.6094 1.29596C47.8818 0.549469 44.7312 0.264282 42.4349 1.91458C41.9461 2.39572 41.3278 2.72409 40.6556 2.85959C39.9583 2.77499 39.3101 2.45709 38.8164 1.95755C34.8369 -0.890686 29.4159 -0.60495 25.7579 2.64581C20.5509 7.52823 21.1402 17.068 15.0379 20.7711C13.3558 21.7919 11.2055 22.3318 10.2234 24.0368C9.98566 24.5799 9.70817 25.1047 9.39321 25.607C8.98444 26.0562 8.48418 26.4127 7.92612 26.6524C6.15551 27.4427 4.47013 28.4116 2.89617 29.544C1.30964 30.699 0.263846 32.4521 0.00116634 34.3968C-0.0213709 35.8077 0.28292 37.2045 0.890204 38.4781C7.00921 53.4863 21.9138 63.0169 38.1044 62.2746C39.5073 62.3468 40.8899 61.9153 42.0027 61.0579C42.5898 60.396 43.0527 59.6336 43.3691 58.8073C46.2379 52.7922 51.626 48.3518 55.0474 42.6329C57.0864 39.2245 58.3953 35.4124 60.5181 32.0554C63.7359 26.9664 68.6295 23.2069 73.4194 19.5588C76.1205 17.5015 79.1276 15.3426 82.5209 15.4867C85.5452 15.6155 87.7449 15.7778 86.6362 12.0687C85.7123 9.39621 83.8657 7.14078 81.4281 5.70761L81.4281 5.70761Z" transform="translate(6.1127625 330.70035)" id="Shape" fill="#000000" fill-opacity="0.05" fill-rule="evenodd" stroke="none" />
      <path d="M75.5005 22.6539C73.4432 24.5735 70.6136 25.4148 67.8679 26.0113C61.5976 27.2341 55.2498 28.0186 48.8705 28.3592C46.8055 28.5122 44.733 28.6728 42.6681 28.8334C36.6109 29.2923 30.5461 29.7588 24.466 29.7817C16.9614 29.8072 9.46953 29.1596 2.08054 27.8467C1.4809 27.9042 0.889544 27.6738 0.486834 27.2259C0.0841236 26.7779 -0.0821972 26.1655 0.0386066 25.5753C0.169924 18.01 1.09265 10.4791 2.79172 3.10583C3.49549 0.0772095 8.92539 6.86853 9.17018 7.15149C10.6768 8.86462 11.8163 9.65234 14.103 9.77472C20.3514 10.1189 27.3493 6.31787 32.3128 2.9375C33.3756 2.14703 34.5039 1.44855 35.6855 0.849731C36.5535 0.460205 37.473 0.197449 38.4158 0.0695801C41.6306 -0.226685 44.8616 0.42749 47.708 1.95105C51.4402 3.80176 54.7135 6.46326 58.4074 8.36761C61.4111 9.91095 64.6533 10.9374 67.9979 11.4038C71.3784 11.8703 75.4164 12.0922 77.1525 15.0212C77.1584 15.0273 77.1612 15.0358 77.1602 15.0442C78.5826 17.4686 77.5501 20.7419 75.5005 22.6539L75.5005 22.6539Z" transform="translate(26.82022 725.3642)" id="Shape" fill="#2F2E41" fill-rule="evenodd" stroke="none" />
      <path d="M76.5812 23.7036C74.5239 25.6232 71.6943 26.4645 68.9486 27.061C62.6784 28.2838 56.3306 29.0683 49.9513 29.4089C47.8862 29.562 45.8137 29.7225 43.7488 29.8831C37.6916 30.342 31.6268 30.8085 25.5467 30.8315C18.0421 30.8569 10.5502 30.2094 3.16129 28.8965C2.47662 28.8694 1.83394 28.5592 1.3869 28.0399C0.803436 27.2674 0.336197 26.4136 0 25.5057C0.130005 17.9496 2.17464 10.4011 3.87245 3.03619C4.57619 0.00762939 10.0061 6.79895 10.2509 7.08191C11.7575 8.79504 12.897 9.58276 15.1837 9.70514C21.4321 10.0493 28.43 6.24829 33.3935 2.86792C34.4564 2.07739 35.5847 1.37885 36.7662 0.780029C37.6342 0.390564 38.5537 0.127869 39.4965 0C38.6934 4.49695 32.2463 9.92694 28.9194 11.5789C22.1893 14.921 14.1896 13.2538 6.67935 13.6439C6.12956 13.6294 5.58582 13.7614 5.10382 14.0262C4.20143 14.6227 4.14784 15.9 4.17847 16.9783C4.23962 18.7679 4.46899 20.8712 6.02155 21.7812C6.7982 22.1541 7.65382 22.3326 8.51477 22.3013C27.0222 23.1115 45.5647 22.4619 63.9701 20.3586C67.0655 20.1515 70.1112 19.4732 73.002 18.3472C74.8909 17.4618 76.6528 16.3275 78.2408 14.9745C80.6049 16.8321 78.6308 21.7916 76.5812 23.7036L76.5812 23.7036Z" transform="translate(25.739502 725.43384)" id="Shape" fill="#E8EAF2" fill-rule="evenodd" stroke="none" />
      <path d="M43.5368 29.928C43.4298 32.8647 45.4335 38.5624 39.9424 36.9717C36.6691 36.0233 35.7437 32.1458 31.5908 33.0101C27.3997 33.8896 26.482 38.9908 25.0748 42.3405C22.7476 47.7448 17.9071 51.6555 12.1345 52.7953C10.9619 53.0681 9.74202 53.0655 8.57063 52.7876C5.89388 52.0228 4.36427 49.2619 3.27065 46.6999C2.32359 44.533 1.5388 42.2988 0.922745 40.0156C0.496017 38.4097 0.211929 36.7692 0.0737762 35.1133L0.0737762 35.1056C-0.0191803 33.9784 -0.0243073 32.8457 0.0584564 31.7176C0.555679 25.041 4.35667 18.9532 9.22075 14.3492C14.0848 9.74524 19.9966 6.41837 25.832 3.13739C27.7377 1.948 29.7994 1.02911 31.958 0.407104C34.0871 -0.0224304 36.2708 -0.112762 38.4281 0.139404C41.2685 0.260681 44.0605 0.917175 46.6573 2.07434C47.722 2.60001 48.6996 3.28613 49.5558 4.1087C50.7745 5.23801 51.6448 6.69214 52.0643 8.29968C53.1198 12.6131 50.3665 16.4983 48.1333 19.9092C46.1447 22.9378 43.6821 26.1499 43.5368 29.928L43.5368 29.928Z" transform="translate(43.319824 266.80994)" id="Shape" fill="#2F2E41" fill-rule="evenodd" stroke="none" />
      <path d="M61.5413 19.4333C61.0279 20.266 60.4661 21.0678 59.8588 21.8347C58.6992 23.3002 57.3979 24.6477 55.9736 25.8576C55.1352 26.588 54.2596 27.2747 53.3505 27.9149C51.6653 29.1011 49.8937 30.1595 48.0505 31.0811C42.6816 33.7885 36.8692 35.4863 31.0874 37.1612C27.3094 38.2625 23.5288 39.3612 19.7455 40.4575C15.7915 43.4478 2.5454 53.2601 0.319832 52.0363C-2.30335 50.5909 12.0714 40.4146 12.0714 40.4146L12.7324 40.9163C10.6292 39.5932 9.52795 36.5264 9.05378 33.8726C8.21253 29.1232 7.81478 24.1903 8.93903 19.4945C10.0633 14.8063 12.8854 10.34 17.1835 8.14505C19.0878 7.16611 21.3975 6.50073 22.7742 4.99411C22.9828 4.77109 23.165 4.52472 23.3172 4.25992C23.4004 4.13675 23.4721 4.00616 23.5313 3.86984C23.6832 3.45618 23.8862 3.06311 24.1355 2.69974C24.9232 1.78964 26.3534 2.06494 27.5465 2.21027C27.6765 2.22552 27.7988 2.24084 27.9289 2.2485C28.1422 2.27014 28.3566 2.28033 28.5712 2.27908C32.8311 2.37085 36.961 3.05176e-05 41.2744 3.05176e-05C46.0008 -0.00762939 50.0236 2.73035 54.1841 4.59644C55.0253 4.97882 55.8207 5.323 56.5702 5.67477C59.5758 7.07434 61.8395 8.5657 63.0786 12.5426C63.7974 14.8676 62.8108 17.3684 61.5413 19.4333L61.5413 19.4333Z" transform="translate(31.250122 260.68564)" id="Shape" fill="#3F3D56" fill-rule="evenodd" stroke="none" />
      <path d="M0 0.0538635C0.598297 0.426636 1.26559 0.675049 1.96201 0.784271C3.7374 1.30029 5.64969 1.01373 7.19583 0L0 0.0538635Z" transform="translate(43.60492 300.93384)" id="Shape" fill="#000000" fill-opacity="0.1" fill-rule="evenodd" stroke="none" />
    </g>
  </g>
</svg>